…
``` r
dados_csv %>%  view()
```

``` r
dados_csv
```

    ## # A tibble: 578 x 4
    ##     peso tempo frango dieta
    ##    <dbl> <dbl>  <dbl> <dbl>
    ##  1    42     0      1     1
    ##  2    51     2      1     1
    ##  3    59     4      1     1
    ##  4    64     6      1     1
    ##  5    76     8      1     1
    ##  6    93    10      1     1
    ##  7   106    12      1     1
    ##  8   125    14      1     1
    ##  9   149    16      1     1
    ## 10   171    18      1     1
    ## # ... with 568 more rows
…
**(a)**

``` r
 dados_co2 %>% 
  pivot_longer(
    !ano,
    names_to = "mes",
    values_to = "ppm"
    
    )
```

    ## # A tibble: 468 x 3
    ##      ano mes     ppm
    ##    <dbl> <chr> <dbl>
    ##  1  1959 jan    315.
    ##  2  1959 fev    316.
    ##  3  1959 mar    316.
    ##  4  1959 abr    318.
    ##  5  1959 mai    318.
    ##  6  1959 jun    318 
    ##  7  1959 jul    316.
    ##  8  1959 ago    315.
    ##  9  1959 set    314.
    ## 10  1959 out    313.
    ## # ... with 458 more rows
…
**(c)** </br>

``` r
dados_co2 %>% 
  pivot_longer(
    !ano,
     names_to = "mes",
    values_to = "ppm"
  )
```

    ## # A tibble: 468 x 3
    ##      ano mes     ppm
    ##    <dbl> <chr> <dbl>
    ##  1  1959 jan    315.
    ##  2  1959 fev    316.
    ##  3  1959 mar    316.
    ##  4  1959 abr    318.
    ##  5  1959 mai    318.
    ##  6  1959 jun    318 
    ##  7  1959 jul    316.
    ##  8  1959 ago    315.
    ##  9  1959 set    314.
    ## 10  1959 out    313.
    ## # ... with 458 more rows
…
